module github.com/mmorley0395

go 1.20

require (
	github.com/BurntSushi/toml v0.4.1 // indirect
	github.com/client9/misspell v0.3.4 // indirect
	github.com/google/go-cmp v0.5.7 // indirect
	github.com/gordonklaus/ineffassign v0.0.0-20210914165742-4cc7213b9bc8 // indirect
	github.com/kisielk/errcheck v1.6.1 // indirect
	github.com/mdempsky/unconvert v0.0.0-20200228143138-95ecdbfc0b5f // indirect
	github.com/tormoder/fit v0.14.0 // indirect
	golang.org/x/exp/typeparams v0.0.0-20220218215828-6cf2b201936e // indirect
	golang.org/x/mod v0.6.0-dev.0.20220419223038-86c51ed26bb4 // indirect
	golang.org/x/sync v0.0.0-20210220032951-036812b2e83c // indirect
	golang.org/x/sys v0.0.0-20220319134239-a9b59b0215f8 // indirect
	golang.org/x/text v0.3.7 // indirect
	golang.org/x/tools v0.1.11 // indirect
	honnef.co/go/tools v0.3.2 // indirect
	mvdan.cc/gofumpt v0.3.1 // indirect
)
